module gitlab.com/NHOrus/galplus-like

go 1.19

require github.com/jroimartin/gocui v0.5.0

require (
	github.com/mattn/go-runewidth v0.0.14 // indirect
	github.com/nsf/termbox-go v1.1.1 // indirect
	github.com/rivo/uniseg v0.4.3 // indirect
)
